RemoteRepoName,LocalRepoName,RemoteRepoURL,TargetDirectory
scripts,Scripts,https://git@bitbucket.org/davidhary/scripts.git,.\
arebis.typedunits,TypedUnits,https://git@bitbucket.org/davidhary/arebis.typedunits.git,Libraries\VS\Core
vs.numerical,numerical,https://git@bitbucket.org/davidhary/vs.numerical.git,Libraries\VS\Algorithms
vs.core3,Core3,https://git@bitbucket.org/davidhary/vs.core3.git,Libraries\VS\Core
vs.share,Share,https://git@bitbucket.org/davidhary/vs.share.git,Libraries\VS
