CommitID,LocalRepoName,TargetDirectory
061bbcf62a26d52ae4f280f5eddb49d692acf294,TypedUnits,Libraries\VS\Core
55264b349f4e87851e91e4627c074bdeef35ad3c,numerical,Libraries\VS\Algorithms
9e3a90e5a45fba4f4cabd02011ccb86114b65af6,Core3,Libraries\VS\Core
9ba9579e8b95cd0c388c27566557300f1fb5f78f,Share,Libraries\VS
f6fd0d81d8034a175d4991d25081c39d02d0f501,VI,Libraries\VS\IO
